ETF Data Analysis • etfdata
…
# A tibble: 30,120 × 8
   ticker date        open  high   low close volume adjusted
   <chr>  <date>     <dbl> <dbl> <dbl> <dbl>  <dbl>    <dbl>
 1 VUSA.L 2020-01-02  46.5  46.9  46.5  46.8 138395     43.4
 2 VUSA.L 2020-01-03  46.8  47.0  46.6  46.9  97886     43.5
 3 VUSA.L 2020-01-06  46.8  46.8  46.3  46.6 197405     43.3
 4 VUSA.L 2020-01-07  46.9  47.0  46.7  46.9 117291     43.6
 5 VUSA.L 2020-01-08  46.6  47.2  46.6  47.1 175961     43.7
 6 VUSA.L 2020-01-09  47.4  47.7  47.3  47.6 258297     44.2
 7 VUSA.L 2020-01-10  47.7  47.9  47.6  47.7 149394     44.3
 8 VUSA.L 2020-01-13  47.8  48.0  47.6  47.9 103430     44.5
 9 VUSA.L 2020-01-14  48.0  48.2  47.9  48.0 156765     44.5
10 VUSA.L 2020-01-15  47.9  48.1  47.8  48.1 131200     44.6
# ℹ 30,110 more rows
…
